{
	"auth": {
		"awsamlifyflutter4c677664": {
			"service": "Cognito",
			"providerPlugin": "awscloudformation",
			"dependsOn": [],
			"customAuth": false
		}
	},
	"analytics": {
		"awsamlifyflutter": {
			"service": "Pinpoint",
			"providerPlugin": "awscloudformation"
		}
	},
	"storage": {
		"s3bf450e8b": {
			"service": "S3",
			"providerPlugin": "awscloudformation"
		}
	}
}