{
	"providers": {
		"awscloudformation": {
			"AuthRoleName": "amplify-awsamlifyflutter-dev-122701-authRole",
			"UnauthRoleArn": "arn:aws:iam::231166953972:role/amplify-awsamlifyflutter-dev-122701-unauthRole",
			"AuthRoleArn": "arn:aws:iam::231166953972:role/amplify-awsamlifyflutter-dev-122701-authRole",
			"Region": "eu-west-1",
			"DeploymentBucketName": "amplify-awsamlifyflutter-dev-122701-deployment",
			"UnauthRoleName": "amplify-awsamlifyflutter-dev-122701-unauthRole",
			"StackName": "amplify-awsamlifyflutter-dev-122701",
			"StackId": "arn:aws:cloudformation:eu-west-1:231166953972:stack/amplify-awsamlifyflutter-dev-122701/2e0c43e0-6eaf-11eb-8334-0a4b355a4d25",
			"AmplifyAppId": "doj4l0qsnstex"
		}
	},
	"auth": {
		"awsamlifyflutter4c677664": {
			"service": "Cognito",
			"providerPlugin": "awscloudformation",
			"dependsOn": [],
			"customAuth": false,
			"providerMetadata": {
				"s3TemplateURL": "https://s3.amazonaws.com/amplify-awsamlifyflutter-dev-122701-deployment/amplify-cfn-templates/auth/awsamlifyflutter4c677664-cloudformation-template.yml",
				"logicalId": "authawsamlifyflutter4c677664"
			},
			"lastPushTimeStamp": "2021-02-14T12:09:04.488Z",
			"output": {
				"AppClientSecret": "fh5t989amjegks1m3asehe68n6gre7kmtuerge9hqd5anrs8v9d",
				"UserPoolId": "eu-west-1_MyIL4J5TE",
				"AppClientIDWeb": "4m6rm6ngi1njaf1tn89dj4hrqh",
				"AppClientID": "791gf167gomri7ha044gujpjc0",
				"IdentityPoolId": "eu-west-1:7cf9aacf-1ea0-484a-90e3-33ab3117dce7",
				"IdentityPoolName": "awsamlifyflutter4c677664_identitypool_4c677664__dev",
				"UserPoolName": "awsamlifyflutter4c677664_userpool_4c677664"
			},
			"lastPushDirHash": "4ImegSDYEwM3Wz3crbGCRpoc73k="
		}
	},
	"analytics": {
		"awsamlifyflutter": {
			"service": "Pinpoint",
			"providerPlugin": "awscloudformation",
			"providerMetadata": {
				"s3TemplateURL": "https://s3.amazonaws.com/amplify-awsamlifyflutter-dev-122701-deployment/amplify-cfn-templates/analytics/pinpoint-cloudformation-template.json",
				"logicalId": "analyticsawsamlifyflutter"
			},
			"lastPushTimeStamp": "2021-02-14T12:09:04.495Z",
			"output": {
				"appName": "awsamlifyflutter-dev",
				"Region": "eu-west-1",
				"Id": "3acfad6a2583434288b66c97db2bbf1c"
			},
			"lastPushDirHash": "G+FY0Nc8+X+GomdCyKI21G84Teg="
		}
	},
	"storage": {
		"s3bf450e8b": {
			"service": "S3",
			"providerPlugin": "awscloudformation",
			"providerMetadata": {
				"s3TemplateURL": "https://s3.amazonaws.com/amplify-awsamlifyflutter-dev-122701-deployment/amplify-cfn-templates/storage/s3-cloudformation-template.json",
				"logicalId": "storages3bf450e8b"
			},
			"lastPushTimeStamp": "2021-02-14T12:09:04.500Z",
			"output": {
				"BucketName": "awsamlifyfluttercb7a4bc8917f401d9469ac96bd37874122701-dev",
				"Region": "eu-west-1"
			},
			"lastPushDirHash": "byEbEcwFLyCAWemfDDzbt3RWqxM="
		}
	}
}